[gd_scene load_steps=6 format=2]

[ext_resource path="res://assets/sounds/explosion.wav" type="AudioStream" id=1]
[ext_resource path="res://characters/Fireball.gd" type="Script" id=2]
[ext_resource path="res://assets/sounds/magic.wav" type="AudioStream" id=3]
[ext_resource path="res://assets/tileset.png" type="Texture" id=4]

[sub_resource type="CircleShape2D" id=1]
radius = 2.0

[node name="Fireball" type="Area2D"]
collision_layer = 0
collision_mask = 9
script = ExtResource( 2 )
damage = 2

[node name="Sprite" type="Sprite" parent="."]
texture = ExtResource( 4 )
region_enabled = true
region_rect = Rect2( 384, 384, 16, 16 )

[node name="CollisionShape2D" type="CollisionShape2D" parent="."]
shape = SubResource( 1 )

[node name="MagicSound" type="AudioStreamPlayer2D" parent="."]
stream = ExtResource( 3 )
volume_db = 4.0
autoplay = true
max_distance = 320.0
attenuation = 2.5

[node name="ExplosionSound" type="AudioStreamPlayer2D" parent="."]
stream = ExtResource( 1 )
max_distance = 320.0
attenuation = 2.5

[node name="TrailParticles" type="CPUParticles2D" parent="."]
amount = 32
local_coords = false
emission_shape = 1
emission_sphere_radius = 2.0
gravity = Vector2( 0, 0 )
initial_velocity = 1.0
color = Color( 0.623529, 0.160784, 0.305882, 1 )
hue_variation = 0.05
hue_variation_random = 0.05

[node name="ExplosionParticles" type="CPUParticles2D" parent="."]
emitting = false
amount = 64
lifetime = 0.5
one_shot = true
explosiveness = 0.5
randomness = 0.5
lifetime_randomness = 0.5
emission_shape = 1
emission_sphere_radius = 2.0
direction = Vector2( 0, -1 )
initial_velocity = 40.0
initial_velocity_random = 1.0
angular_velocity = 115.62
color = Color( 0.623529, 0.160784, 0.305882, 1 )
hue_variation = 0.25
hue_variation_random = 0.6

[node name="DestructionTimer" type="Timer" parent="."]
one_shot = true
autostart = true
[connection signal="area_entered" from="." to="." method="_on_Fireball_body_or_area_entered"]
[connection signal="body_entered" from="." to="." method="_on_Fireball_body_or_area_entered"]
[connection signal="timeout" from="DestructionTimer" to="." method="_on_DestructionTimer_timeout"]
