[gd_scene load_steps=3 format=2]

[ext_resource path="res://ui/LoreScreen.gd" type="Script" id=1]
[ext_resource path="res://ui/theme.tres" type="Theme" id=3]

[node name="LoreScreen" type="Control"]
anchor_right = 1.0
anchor_bottom = 1.0
theme = ExtResource( 3 )
script = ExtResource( 1 )
__meta__ = {
"_edit_use_anchors_": false
}

[node name="Text" type="Label" parent="."]
anchor_right = 1.0
margin_top = 10.0
margin_bottom = 13.0
text = "You and your fellow monsters are being held against your
will in a dungeon prision guarded by powerful wizards.

Somehow you've managed to escape your cell!

Can you free your comrades and leave the dungeon?"
align = 1
__meta__ = {
"_edit_use_anchors_": false
}

[node name="HBoxContainer" type="HBoxContainer" parent="."]
anchor_top = 1.0
anchor_right = 1.0
anchor_bottom = 1.0
margin_top = -39.0
margin_bottom = -20.0
custom_constants/separation = 50
alignment = 1
__meta__ = {
"_edit_use_anchors_": false
}

[node name="ContinueButton" type="Button" parent="HBoxContainer"]
margin_left = 137.0
margin_right = 183.0
margin_bottom = 19.0
text = "Continue"
[connection signal="pressed" from="HBoxContainer/ContinueButton" to="." method="_on_ContinueButton_pressed"]
